M48
; DRILL file {KiCad 7.0.10-7.0.10~ubuntu22.04.1} date Mon Jan  8 21:55:21 2024
; FORMAT={-:-/ absolute / metric / decimal}
; #@! TF.CreationDate,2024-01-08T21:55:21-05:00
; #@! TF.GenerationSoftware,Kicad,Pcbnew,7.0.10-7.0.10~ubuntu22.04.1
; #@! TF.FileFunction,MixedPlating,1,2
FMAT,2
METRIC
; #@! TA.AperFunction,Plated,PTH,ComponentDrill
T1C0.700
; #@! TA.AperFunction,Plated,PTH,ComponentDrill
T2C0.800
; #@! TA.AperFunction,Plated,PTH,ComponentDrill
T3C1.000
; #@! TA.AperFunction,Plated,PTH,ComponentDrill
T4C1.016
; #@! TA.AperFunction,Plated,PTH,ComponentDrill
T5C1.100
; #@! TA.AperFunction,Plated,PTH,ComponentDrill
T6C1.200
%
G90
G05
T1
X-19.05Y48.26
X-16.51Y50.8
X-13.97Y48.26
X13.97Y47.95
X16.51Y50.49
X19.05Y47.95
X20.32Y41.91
X20.32Y35.56
X20.32Y29.21
T2
X-19.05Y60.96
X-19.05Y55.88
X-19.05Y38.1
X-19.05Y25.4
X-19.05Y20.32
X-19.05Y15.24
X-19.05Y10.16
X-19.05Y-5.08
X-19.05Y-27.94
X-19.05Y-33.02
X-19.05Y-38.1
X-19.04Y33.02
X-19.04Y29.21
X-18.078Y-63.5
X-16.54Y29.21
X-16.51Y-21.59
X-13.97Y-21.59
X-11.43Y-21.59
X-11.39Y29.21
X-8.89Y60.96
X-8.89Y55.88
X-8.89Y38.1
X-8.89Y29.21
X-8.89Y25.4
X-8.89Y20.32
X-8.89Y15.24
X-8.89Y10.16
X-8.89Y-5.08
X-8.89Y-27.94
X-8.89Y-33.02
X-8.89Y-38.1
X-8.88Y33.02
X-7.918Y-63.5
X-3.81Y36.83
X-3.81Y34.29
X-3.81Y31.75
X-3.81Y29.21
X-3.81Y26.67
X-3.81Y24.13
X-3.81Y21.59
X-3.81Y-2.54
X-3.81Y-5.08
X-3.81Y-7.62
X-3.81Y-10.16
X-3.81Y-13.97
X-3.8Y50.8
X-3.8Y48.26
X-3.8Y45.72
X-3.8Y43.18
X-1.31Y-13.97
X3.81Y36.83
X3.81Y34.29
X3.81Y31.75
X3.81Y29.21
X3.81Y26.67
X3.81Y24.13
X3.81Y21.59
X3.81Y3.81
X3.81Y1.31
X3.81Y-2.54
X3.81Y-5.08
X3.81Y-7.62
X3.81Y-10.16
X3.82Y50.8
X3.82Y48.26
X3.82Y45.72
X3.82Y43.18
X7.322Y-63.5
X8.88Y-5.07
X8.89Y60.96
X8.89Y55.88
X8.89Y50.76
X8.89Y48.26
X8.89Y44.45
X8.89Y41.95
X8.89Y29.21
X8.89Y25.4
X8.89Y20.32
X8.89Y15.24
X8.89Y10.16
X8.89Y-10.16
X8.89Y-16.51
X8.89Y-33.02
X8.89Y-38.1
X11.39Y29.21
X11.39Y-16.51
X16.51Y-16.51
X17.482Y-63.5
X19.01Y-16.51
X19.04Y-5.07
X19.05Y60.96
X19.05Y55.88
X19.05Y25.4
X19.05Y20.32
X19.05Y15.24
X19.05Y10.16
X19.05Y-10.16
X19.05Y-33.02
X19.05Y-38.1
T4
X-1.27Y-21.59
X-1.27Y-24.13
X-1.27Y-26.67
X-1.27Y-29.21
X-1.27Y-31.75
X1.27Y-21.59
X1.27Y-24.13
X1.27Y-26.67
X1.27Y-29.21
X1.27Y-31.75
T5
X8.89Y-22.86
X8.89Y-27.94
X19.05Y-22.86
X19.05Y-27.94
T6
X-13.97Y2.54
X-11.43Y2.54
X-8.89Y2.54
X8.89Y2.54
X11.43Y2.54
X13.97Y2.54
T3
X-19.198Y-49.65G85X-19.198Y-51.35
G05
X-19.198Y-74.65G85X-19.198Y-76.35
G05
X-14.448Y-56.4G85X-16.148Y-56.4
G05
X-14.448Y-81.4G85X-16.148Y-81.4
G05
X-11.448Y-43.6G85X-13.148Y-43.6
G05
X-11.448Y-68.6G85X-13.148Y-68.6
G05
X-7.457Y-54.139G85X-8.659Y-55.341
G05
X-7.457Y-79.139G85X-8.659Y-80.341
G05
X-6.398Y-46.65G85X-6.398Y-48.35
G05
X-6.398Y-71.65G85X-6.398Y-73.35
G05
X5.802Y-49.65G85X5.802Y-51.35
G05
X5.802Y-74.65G85X5.802Y-76.35
G05
X10.552Y-56.4G85X8.852Y-56.4
G05
X10.552Y-81.4G85X8.852Y-81.4
G05
X13.552Y-43.6G85X11.852Y-43.6
G05
X13.552Y-68.6G85X11.852Y-68.6
G05
X17.543Y-54.139G85X16.341Y-55.341
G05
X17.543Y-79.139G85X16.341Y-80.341
G05
X18.602Y-46.65G85X18.602Y-48.35
G05
X18.602Y-71.65G85X18.602Y-73.35
G05
M30
