M48
; DRILL file {KiCad 7.0.9-7.0.9~ubuntu22.04.1} date Fri Dec 15 09:09:45 2023
; FORMAT={-:-/ absolute / metric / decimal}
; #@! TF.CreationDate,2023-12-15T09:09:45-05:00
; #@! TF.GenerationSoftware,Kicad,Pcbnew,7.0.9-7.0.9~ubuntu22.04.1
; #@! TF.FileFunction,MixedPlating,1,2
FMAT,2
METRIC
; #@! TA.AperFunction,Plated,PTH,ComponentDrill
T1C0.600
; #@! TA.AperFunction,Plated,PTH,ComponentDrill
T2C3.200
%
G90
G05
T1
X6.4Y50.0
X6.4Y25.0
X8.2Y54.3
X8.2Y45.7
X8.2Y29.3
X8.2Y20.7
X12.5Y56.1
X12.5Y43.9
X12.5Y31.1
X12.5Y18.9
X16.7Y45.6
X16.7Y20.6
X16.8Y54.3
X16.8Y29.3
X18.6Y50.0
X18.6Y25.0
X20.3Y150.0
X20.3Y100.0
X21.7Y153.3
X21.7Y146.7
X21.7Y103.3
X21.7Y96.7
X25.0Y154.7
X25.0Y145.3
X25.0Y104.7
X25.0Y95.3
X28.2Y146.6
X28.2Y96.6
X28.3Y153.3
X28.3Y103.3
X29.7Y150.0
X29.7Y100.0
X31.4Y50.0
X31.4Y25.0
X33.2Y54.3
X33.2Y45.7
X33.2Y29.3
X33.2Y20.7
X37.5Y56.1
X37.5Y43.9
X37.5Y31.1
X37.5Y18.9
X41.7Y45.6
X41.7Y20.6
X41.8Y54.3
X41.8Y29.3
X43.6Y50.0
X43.6Y25.0
T2
X3.0Y197.0G85X5.8Y197.0
G05
X3.0Y3.0G85X5.8Y3.0
G05
X47.0Y197.0G85X44.2Y197.0
G05
X47.0Y3.0G85X44.2Y3.0
G05
T0
M30
